{
  "generatedAt": "2025-09-23T03:26:54.511Z",
  "pageSize": 100,
  "pages": 6,
  "totalItems": 583,
  "files": [
    {
      "page": 1,
      "file": "page-1.json",
      "count": 100
    },
    {
      "page": 2,
      "file": "page-2.json",
      "count": 100
    },
    {
      "page": 3,
      "file": "page-3.json",
      "count": 100
    },
    {
      "page": 4,
      "file": "page-4.json",
      "count": 100
    },
    {
      "page": 5,
      "file": "page-5.json",
      "count": 100
    },
    {
      "page": 6,
      "file": "page-6.json",
      "count": 83
    }
  ]
}